<?xml version="1.0" encoding="utf-8"?>
<!-- Generator: Adobe Illustrator 19.2.0, SVG Export Plug-In . SVG Version: 6.00 Build 0)  -->
<svg version="1.2" baseProfile="tiny" id="Isolation_Mode"
	 xmlns="http://www.w3.org/2000/svg" xmlns:xlink="http://www.w3.org/1999/xlink" x="0px" y="0px" viewBox="0 0 98.7 27"
	 xml:space="preserve">
<path fill="#00A68D" d="M29,23.3L25,2.5c-0.5-2.4-3.4-3.4-5.2-1.7L1.1,17.7c-2,1.7-1,5,1.6,5.5L25.5,27C27.6,27.3,29.5,25.4,29,23.3
	 M20.9,21.4L7.6,19.1c-1.5-0.3-2.1-2.2-0.9-3.2l11-9.9c1.1-0.9,2.8-0.4,3,1L23,19.2C23.3,20.5,22.2,21.6,20.9,21.4"/>
<path fill="#C72153" d="M9.7,15.7l7.4-6.6c0.7-0.6,1.8-0.3,2,0.7l1.6,8.1c0.2,0.9-0.6,1.6-1.4,1.4l-8.9-1.5
	C9.3,17.6,8.9,16.4,9.7,15.7"/>
<path fill="#00A68D" d="M61.6,17.7c-0.2,0-0.4-0.2-0.4-0.4V3.2c0-0.2,0.2-0.4,0.4-0.4h2.6c0.2,0,0.4,0.2,0.4,0.4v11.2h3.9
	c0.2,0,0.4,0.2,0.4,0.4v2.5c0,0.2-0.2,0.4-0.4,0.4L61.6,17.7L61.6,17.7z"/>
<path fill="#00A68D" d="M76.6,18c-5.3,0-7.6-3.8-7.6-7.6c0-3.7,2.4-7.8,7.6-7.8c2.2,0,4,0.7,5.4,2.1c1.4,1.4,2.2,3.5,2.2,5.7
	C84.2,14.1,81.8,18,76.6,18 M76.6,5.7c-1.2,0-2.3,0.4-3,1.2c-0.9,0.9-1.3,2.1-1.3,3.5c0,1,0.4,4.4,4.3,4.4c3.1,0,4.2-2.3,4.3-4.5
	c0-1.4-0.4-2.7-1.3-3.5C78.9,6.1,77.9,5.7,76.6,5.7"/>
<path fill="#00A68D" d="M92.7,18.1c-5.8,0-7.8-3.9-7.8-7.5c0-4,2.4-8,7.8-8c2,0,4,0.8,5.5,2.3c0.1,0.1,0.1,0.4,0,0.5L96.5,7
	c-0.1,0.1-0.2,0.1-0.3,0.1c-0.1,0-0.2,0-0.3-0.1c-0.8-0.8-2.1-1.3-3.3-1.3c-2.7,0-4.5,2-4.5,4.8c0,2.1,1.2,4.3,4.5,4.3
	c1.1,0,1.9-0.3,2.8-0.9v-2h-3.2c-0.2,0-0.4-0.2-0.4-0.4V9.1c0-0.2,0.2-0.4,0.4-0.4h6.1c0.2,0,0.4,0.2,0.4,0.4v5.9
	c0,0.1,0,0.2-0.1,0.3C97,17.2,95.1,18.1,92.7,18.1"/>
<path fill="#C72153" d="M45.6,4.7l-1.1,2.2c-0.1,0.2-0.4,0.3-0.6,0.2c-1.5-0.8-3.2-1.3-4.3-1.3c-1,0-1.6,0.3-1.6,1.1
	c0,2.6,7.9,1.1,7.9,6.5c0,3-2.6,4.6-6,4.6c-2.3,0-4.8-0.9-6.5-2.2c-0.2-0.1-0.2-0.3-0.1-0.6l1.1-2.1c0.1-0.3,0.4-0.3,0.6-0.2
	c1.5,1.2,3.5,1.9,5,1.9c1.2,0,1.9-0.4,1.9-1.3c0-2.6-7.9-1.1-7.9-6.3c0-2.7,2.3-4.5,5.9-4.5c2,0,4,0.6,5.5,1.4
	C45.6,4.2,45.7,4.5,45.6,4.7"/>
<path fill="#C72153" d="M53.6,2.8c3.8,0,6,1.9,6,5.2c0,3.5-2.2,5.5-6,5.5h-2.7v3.8c0,0.2-0.2,0.3-0.3,0.3h-3.1
	c-0.2,0-0.3-0.2-0.3-0.3V3.2c0-0.2,0.2-0.3,0.3-0.3L53.6,2.8L53.6,2.8z M50.9,10.5h2.5c1.7,0,2.6-0.8,2.6-2.4c0-1.5-0.9-2.3-2.6-2.3
	h-2.5C50.9,5.8,50.9,10.5,50.9,10.5z"/>
<path fill="#7F8083" d="M41.5,21.5c1,0,1.7,0.7,1.7,1.7S42.5,25,41.5,25h-1.4v-3.4H41.5z M40.5,24.6h1c0.8,0,1.4-0.6,1.4-1.3
	s-0.6-1.3-1.4-1.3h-1V24.6z"/>
<rect x="45.1" y="21.5" fill="#7F8083" width="0.4" height="3.4"/>
<path fill="#7F8083" d="M49.6,21.8l-0.2,0.4c-0.3-0.2-0.7-0.3-0.9-0.3c-0.4,0-0.7,0.2-0.7,0.5c0,0.9,1.9,0.4,1.9,1.7
	c0,0.6-0.5,0.9-1.2,0.9c-0.5,0-1-0.2-1.3-0.5l0.2-0.3c0.3,0.3,0.8,0.5,1.2,0.5c0.5,0,0.8-0.2,0.8-0.5c0-0.9-1.9-0.4-1.9-1.7
	c0-0.6,0.5-0.9,1.2-0.9C48.9,21.5,49.4,21.6,49.6,21.8"/>
<polygon fill="#7F8083" points="52.6,21.9 52.6,24.9 52.2,24.9 52.2,21.9 51.1,21.9 51.1,21.5 53.7,21.5 53.7,21.9 "/>
<path fill="#7F8083" d="M56.9,23.8c-0.1,0-0.2,0-0.2,0h-0.9v1.1h-0.4v-3.4h1.3c0.9,0,1.4,0.4,1.4,1.2c0,0.6-0.3,0.9-0.8,1.1l0.8,1.2
	h-0.4L56.9,23.8z M56.7,23.5c0.6,0,1-0.3,1-0.8c0-0.5-0.3-0.8-1-0.8h-0.9v1.6H56.7z"/>
<rect x="59.9" y="21.5" fill="#7F8083" width="0.4" height="3.4"/>
<path fill="#7F8083" d="M63.9,21.5c0.7,0,1.1,0.3,1.1,0.9c0,0.4-0.2,0.7-0.6,0.8c0.5,0.1,0.8,0.4,0.8,0.9c0,0.6-0.5,0.9-1.2,0.9
	h-1.4v-3.4H63.9z M62.8,23h1c0.5,0,0.7-0.2,0.7-0.6c0-0.3-0.3-0.6-0.7-0.6h-1V23z M62.8,24.6h1c0.6,0,0.9-0.2,0.9-0.6
	c0-0.4-0.3-0.6-0.9-0.6h-1V24.6z"/>
<path fill="#7F8083" d="M69.8,23.6c0,0.9-0.6,1.4-1.4,1.4c-0.9,0-1.4-0.6-1.4-1.4v-2h0.4v2c0,0.7,0.4,1.1,1.1,1.1c0.6,0,1-0.4,1-1.1
	v-2h0.4L69.8,23.6L69.8,23.6z"/>
<rect x="71.8" y="21.5" fill="#7F8083" width="0.4" height="3.4"/>
<path fill="#7F8083" d="M75.7,21.5c1,0,1.7,0.7,1.7,1.7S76.6,25,75.7,25h-1.4v-3.4H75.7z M74.7,24.6h1c0.8,0,1.4-0.6,1.4-1.3
	s-0.6-1.3-1.4-1.3h-1V24.6z"/>
<path fill="#7F8083" d="M82.4,23.2c0,1-0.8,1.7-1.8,1.7s-1.8-0.8-1.8-1.7c0-1,0.8-1.7,1.8-1.7C81.6,21.5,82.4,22.3,82.4,23.2
	 M79.2,23.2c0,0.8,0.6,1.4,1.4,1.4S82,24,82,23.2c0-0.8-0.6-1.4-1.4-1.4C79.8,21.9,79.2,22.5,79.2,23.2"/>
<path fill="#7F8083" d="M85.7,23.8c-0.1,0-0.2,0-0.2,0h-0.9v1.1h-0.4v-3.4h1.3c0.9,0,1.4,0.4,1.4,1.2c0,0.6-0.3,0.9-0.8,1.1l0.8,1.2
	h-0.4L85.7,23.8z M85.5,23.5c0.6,0,1-0.3,1-0.8c0-0.5-0.3-0.8-1-0.8h-0.9v1.6H85.5z"/>
<path fill="#7F8083" d="M89,24.1l-0.4,0.9h-0.4l1.5-3.4h0.4l1.5,3.4h-0.4l-0.4-0.9H89z M90,22l-0.8,1.7h1.5L90,22z"/>
</svg>
